<?xml version="1.0" encoding="UTF-8" standalone="no"?>
<!-- Created with Inkscape (http://www.inkscape.org/) -->

<svg
   xmlns:dc="http://purl.org/dc/elements/1.1/"
   xmlns:cc="http://creativecommons.org/ns#"
   xmlns:rdf="http://www.w3.org/1999/02/22-rdf-syntax-ns#"
   xmlns:svg="http://www.w3.org/2000/svg"
   xmlns="http://www.w3.org/2000/svg"
   xmlns:xlink="http://www.w3.org/1999/xlink"
   xmlns:sodipodi="http://sodipodi.sourceforge.net/DTD/sodipodi-0.dtd"
   xmlns:inkscape="http://www.inkscape.org/namespaces/inkscape"
   width="132.29167mm"
   height="132.29167mm"
   viewBox="0 0 132.29167 132.29167"
   version="1.1"
   id="svg5164"
   inkscape:version="0.92.5 (2060ec1f9f, 2020-04-08)"
   sodipodi:docname="logo.svg">
  <defs
     id="defs5158">
    <linearGradient
       inkscape:collect="always"
       xlink:href="#light-west_1_"
       id="linearGradient5138"
       gradientUnits="userSpaceOnUse"
       gradientTransform="matrix(0.48498289,0,0,-0.48498289,-777.04998,230.45443)"
       x1="235.9111"
       y1="154.04829"
       x2="237.2312"
       y2="179.2364" />
    <linearGradient
       y2="179.2364"
       y1="154.04829"
       x2="237.2312"
       x1="235.9111"
       id="light-west_1_"
       gradientUnits="userSpaceOnUse"
       gradientTransform="matrix(0.48498289,0,0,0.48498289,-1031.0771,125.28183)">
      <stop
         id="stop9163"
         stop-color="#545454"
         offset="0"
         style="stop-color:#542354;stop-opacity:1" />
      <stop
         id="stop9165"
         stop-color="#d6d6d6"
         offset="1" />
    </linearGradient>
    <linearGradient
       inkscape:collect="always"
       xlink:href="#dark-north_1_"
       id="linearGradient5140"
       gradientUnits="userSpaceOnUse"
       gradientTransform="matrix(0.48498289,0,0,0.48498289,-777.04998,77.078615)"
       x1="172.7354"
       y1="82.964798"
       x2="143.51559"
       y2="77.285103" />
    <linearGradient
       y2="77.285103"
       y1="82.964798"
       x2="143.51559"
       x1="172.7354"
       id="dark-north_1_"
       gradientUnits="userSpaceOnUse"
       gradientTransform="matrix(0.48498289,0,0,0.48498289,-1031.0771,125.28183)">
      <stop
         id="stop9168"
         stop-color="#545454"
         offset="0"
         style="stop-color:#542354;stop-opacity:1" />
      <stop
         id="stop9170"
         stop-color="#d6d6d6"
         offset="1" />
    </linearGradient>
    <linearGradient
       inkscape:collect="always"
       xlink:href="#dark-east_1_"
       id="linearGradient5142"
       gradientUnits="userSpaceOnUse"
       gradientTransform="matrix(0.48498289,0,0,0.48498289,-777.04998,77.078615)"
       x1="80.504402"
       y1="152.69679"
       x2="78.717499"
       y2="178.25011" />
    <linearGradient
       y2="178.25011"
       y1="152.69679"
       x2="78.717499"
       x1="80.504402"
       id="dark-east_1_"
       gradientUnits="userSpaceOnUse"
       gradientTransform="matrix(0.48498289,0,0,0.48498289,-1031.0771,125.28183)">
      <stop
         id="stop9173"
         stop-color="#545454"
         offset="0"
         style="stop-color:#542354;stop-opacity:1" />
      <stop
         id="stop9175"
         stop-color="#d6d6d6"
         offset="1" />
    </linearGradient>
    <linearGradient
       inkscape:collect="always"
       xlink:href="#linearGradient9685"
       id="linearGradient5144"
       gradientUnits="userSpaceOnUse"
       gradientTransform="translate(138.09773,-649.25851)"
       x1="-837.89966"
       y1="827.8255"
       x2="-813.30096"
       y2="838.44354" />
    <linearGradient
       inkscape:collect="always"
       id="linearGradient9685">
      <stop
         style="stop-color:#542354;stop-opacity:1;"
         offset="0"
         id="stop9681" />
      <stop
         style="stop-color:#ececec;stop-opacity:1"
         offset="1"
         id="stop9683" />
    </linearGradient>
    <linearGradient
       inkscape:collect="always"
       xlink:href="#linearGradient2993"
       id="linearGradient5146"
       gradientUnits="userSpaceOnUse"
       gradientTransform="matrix(0.48498289,0,0,0.48498289,-797.67854,60.995333)"
       x1="172.7354"
       y1="82.964798"
       x2="94.958199"
       y2="45.171967" />
    <linearGradient
       gradientUnits="userSpaceOnUse"
       id="linearGradient2993"
       x1="218.125"
       x2="158.125">
      <stop
         offset="0"
         stop-color="#ccc"
         id="stop2989"
         style="stop-color:#006680;stop-opacity:1" />
      <stop
         offset="1"
         stop-color="#f2f2f2"
         id="stop2991" />
    </linearGradient>
    <linearGradient
       inkscape:collect="always"
       xlink:href="#linearGradient2993"
       id="linearGradient5148"
       gradientUnits="userSpaceOnUse"
       gradientTransform="matrix(0.48498289,0,0,0.48498289,-797.67854,60.995333)"
       x1="80.504402"
       y1="152.69679"
       x2="78.717499"
       y2="178.25011" />
    <linearGradient
       gradientUnits="userSpaceOnUse"
       id="linearGradient5742"
       x1="218.125"
       x2="158.125">
      <stop
         offset="0"
         stop-color="#ccc"
         id="stop5738"
         style="stop-color:#006680;stop-opacity:1" />
      <stop
         offset="1"
         stop-color="#f2f2f2"
         id="stop5740" />
    </linearGradient>
    <linearGradient
       inkscape:collect="always"
       xlink:href="#linearGradient2993"
       id="linearGradient5150"
       gradientUnits="userSpaceOnUse"
       gradientTransform="translate(117.46917,-665.34179)"
       x1="-837.89966"
       y1="827.8255"
       x2="-822.04187"
       y2="832.49969" />
    <linearGradient
       gradientUnits="userSpaceOnUse"
       id="linearGradient5749"
       x1="218.125"
       x2="158.125">
      <stop
         offset="0"
         stop-color="#ccc"
         id="stop5745"
         style="stop-color:#006680;stop-opacity:1" />
      <stop
         offset="1"
         stop-color="#f2f2f2"
         id="stop5747" />
    </linearGradient>
    <linearGradient
       inkscape:collect="always"
       xlink:href="#linearGradient2993"
       id="linearGradient5152"
       gradientUnits="userSpaceOnUse"
       gradientTransform="matrix(0.00991916,0.48488144,0.48488144,-0.00991916,-762.29385,24.879384)"
       x1="235.9111"
       y1="154.04829"
       x2="237.2312"
       y2="179.2364" />
    <linearGradient
       gradientUnits="userSpaceOnUse"
       id="linearGradient5756"
       x1="218.125"
       x2="158.125">
      <stop
         offset="0"
         stop-color="#ccc"
         id="stop5752"
         style="stop-color:#006680;stop-opacity:1" />
      <stop
         offset="1"
         stop-color="#f2f2f2"
         id="stop5754" />
    </linearGradient>
    <linearGradient
       inkscape:collect="always"
       xlink:href="#linearGradient10006"
       id="linearGradient5154"
       gradientUnits="userSpaceOnUse"
       gradientTransform="matrix(1.0021639,0,0,1.0021639,329.35078,154.59599)"
       x1="-1032.098"
       y1="136.31699"
       x2="-1033.8466"
       y2="263.87631" />
    <linearGradient
       inkscape:collect="always"
       id="linearGradient10006">
      <stop
         style="stop-color:#d1c7d1;stop-opacity:1"
         offset="0"
         id="stop10002" />
      <stop
         style="stop-color:#603360;stop-opacity:1"
         offset="1"
         id="stop10004" />
    </linearGradient>
    <filter
       inkscape:collect="always"
       style="color-interpolation-filters:sRGB"
       id="filter9945-6-2-6-9"
       x="-0.23639508"
       width="1.4727902"
       y="-0.23640493"
       height="1.4728098">
      <feGaussianBlur
         inkscape:collect="always"
         stdDeviation="12.538592"
         id="feGaussianBlur9947-0-9-1-3" />
    </filter>
    <filter
       inkscape:collect="always"
       style="color-interpolation-filters:sRGB"
       id="filter9945-0-6-3-3-7"
       x="-0.23639508"
       width="1.4727902"
       y="-0.23640493"
       height="1.4728098">
      <feGaussianBlur
         inkscape:collect="always"
         stdDeviation="12.538592"
         id="feGaussianBlur9947-3-2-9-2-4" />
    </filter>
    <filter
       inkscape:collect="always"
       style="color-interpolation-filters:sRGB"
       id="filter9945-1-6-0-1-5"
       x="-0.23639508"
       width="1.4727902"
       y="-0.23640493"
       height="1.4728098">
      <feGaussianBlur
         inkscape:collect="always"
         stdDeviation="12.538592"
         id="feGaussianBlur9947-9-1-8-5-2" />
    </filter>
    <filter
       inkscape:collect="always"
       style="color-interpolation-filters:sRGB"
       id="filter3834-6-0-3-1-9-5-7-3-6-8-2-3-2-3-8-8-9-5"
       x="-0.012939884"
       width="1.0258797"
       y="-0.011187407"
       height="1.0223747">
      <feGaussianBlur
         inkscape:collect="always"
         stdDeviation="0.34415469"
         id="feGaussianBlur3836-3-1-3-3-3-3-2-8-3-3-2-3-5-6-79-5-9-4" />
    </filter>
    <filter
       inkscape:collect="always"
       style="color-interpolation-filters:sRGB"
       id="filter3834-6-0-3-1-9-5-7-3-6-8-2-3-2-3-0-2-0-1-74"
       x="-0.012939884"
       width="1.0258797"
       y="-0.011187407"
       height="1.0223747">
      <feGaussianBlur
         inkscape:collect="always"
         stdDeviation="0.34415469"
         id="feGaussianBlur3836-3-1-3-3-3-3-2-8-3-3-2-3-5-6-6-0-9-4-4" />
    </filter>
    <filter
       inkscape:collect="always"
       style="color-interpolation-filters:sRGB"
       id="filter3834-6-0-3-1-9-5-7-3-6-8-2-3-2-3-0-9-2-6-9-3"
       x="-0.012939884"
       width="1.0258797"
       y="-0.011187407"
       height="1.0223747">
      <feGaussianBlur
         inkscape:collect="always"
         stdDeviation="0.34415469"
         id="feGaussianBlur3836-3-1-3-3-3-3-2-8-3-3-2-3-5-6-6-9-3-3-1-0" />
    </filter>
    <filter
       inkscape:collect="always"
       style="color-interpolation-filters:sRGB"
       id="filter3834-6-0-3-1-9-5-7-3-6-8-2-3-2-3-0-8-7-8-0-7"
       x="-0.012939884"
       width="1.0258797"
       y="-0.011187407"
       height="1.0223747">
      <feGaussianBlur
         inkscape:collect="always"
         stdDeviation="0.34415469"
         id="feGaussianBlur3836-3-1-3-3-3-3-2-8-3-3-2-3-5-6-6-1-5-5-7-8" />
    </filter>
    <filter
       inkscape:collect="always"
       style="color-interpolation-filters:sRGB"
       id="filter3834-6-0-3-1-9-5-7-3-6-8-2-3-2-3-0-8-1-92-6-5-6"
       x="-0.012939884"
       width="1.0258797"
       y="-0.011187407"
       height="1.0223747">
      <feGaussianBlur
         inkscape:collect="always"
         stdDeviation="0.34415469"
         id="feGaussianBlur3836-3-1-3-3-3-3-2-8-3-3-2-3-5-6-6-1-1-2-1-8-8" />
    </filter>
  </defs>
  <sodipodi:namedview
     id="base"
     pagecolor="#ffffff"
     bordercolor="#666666"
     borderopacity="1.0"
     inkscape:pageopacity="0.0"
     inkscape:pageshadow="2"
     inkscape:zoom="1.4"
     inkscape:cx="494.15525"
     inkscape:cy="228.27534"
     inkscape:document-units="mm"
     inkscape:current-layer="layer1"
     showgrid="false"
     fit-margin-top="0"
     fit-margin-left="0"
     fit-margin-right="0"
     fit-margin-bottom="0"
     inkscape:window-width="1432"
     inkscape:window-height="682"
     inkscape:window-x="118"
     inkscape:window-y="244"
     inkscape:window-maximized="0" />
  <metadata
     id="metadata5161">
    <rdf:RDF>
      <cc:Work
         rdf:about="">
        <dc:format>image/svg+xml</dc:format>
        <dc:type
           rdf:resource="http://purl.org/dc/dcmitype/StillImage" />
        <dc:title></dc:title>
      </cc:Work>
    </rdf:RDF>
  </metadata>
  <g
     inkscape:label="Layer 1"
     inkscape:groupmode="layer"
     id="layer1"
     transform="translate(191.25279,-312.38132)">
    <g
       transform="matrix(0.9409026,0,0,0.95788653,-1145.3592,-615.88407)"
       id="g4737"
       inkscape:export-filename="/home/zoe/Desktop/logos.png"
       inkscape:export-xdpi="96"
       inkscape:export-ydpi="96">
      <g
         inkscape:export-ydpi="90"
         inkscape:export-xdpi="90"
         inkscape:export-filename="/home/zoe/Desktop/logo-lichter.png"
         id="g6304-8"
         transform="translate(1816.2244,563.77045)">
        <g
           transform="matrix(1.1599611,0,0,1.1599611,110.30826,302.35061)"
           id="g3540-7-4-4">
          <g
             id="g3677-7-2-3"
             transform="matrix(0.80105726,0,0,0.78685378,-165.02795,27.297199)">
            <g
               id="g2343-6-2-1">
              <path
                 inkscape:connector-curvature="0"
                 d="m -700.36207,153.76653 11.63954,-11.63959 -11.63954,-64.017735"
                 id="path9253-4-4-2-4"
                 style="stroke-width:0.48498291" />
              <path
                 inkscape:connector-curvature="0"
                 d="m -700.36207,153.76653 -11.63962,-11.63959 -64.01769,11.63959"
                 id="path9255-78-3-0-9"
                 style="stroke-width:0.48498291" />
              <path
                 inkscape:connector-curvature="0"
                 d="m -700.36207,153.76653 -11.63962,11.63958 11.63962,64.01774"
                 id="path9257-4-0-5-2"
                 style="stroke-width:0.48498291" />
              <path
                 style="fill:url(#linearGradient5138);stroke-width:0.48498291"
                 inkscape:connector-curvature="0"
                 d="m -700.36207,153.76652 11.63954,-11.63958 64.01775,11.63958"
                 id="path9259-5-3-5-0" />
              <path
                 style="fill:url(#linearGradient5140);stroke-width:0.48498291"
                 inkscape:connector-curvature="0"
                 d="m -700.36207,153.76653 -11.63962,-11.63959 11.63962,-64.017735"
                 id="path9261-0-0-2-6" />
              <path
                 style="fill:url(#linearGradient5142);stroke-width:0.48498291"
                 inkscape:connector-curvature="0"
                 d="m -700.36207,153.76653 -11.63962,11.63958 -64.01769,-11.63958"
                 id="path9263-3-9-9-8" />
              <path
                 style="fill:url(#linearGradient5144);fill-opacity:1;stroke-width:0.48498291"
                 inkscape:connector-curvature="0"
                 d="m -700.36207,153.76653 11.63954,11.63958 -11.63954,64.01774"
                 id="path9265-6-2-0-9" />
              <path
                 inkscape:connector-curvature="0"
                 d="m -700.36207,153.76652 11.63954,11.63959 64.01775,-11.63959"
                 id="path9267-1-5-2-26"
                 style="stroke-width:0.48498291" />
            </g>
          </g>
          <g
             id="g3677-9-4-8-64"
             transform="matrix(0.64336981,-0.03524622,0.03524622,0.64336981,-405.63934,77.363997)">
            <g
               transform="rotate(-39.873714,-689.80694,-191.86309)"
               id="g2333-0-3-9">
              <g
                 transform="rotate(-0.46251733,-720.97916,137.69448)"
                 id="g2378-5-8-5">
                <path
                   style="stroke-width:0.48498291"
                   id="path9257-4-7-9-0-0"
                   d="m -720.99063,137.68325 -11.63962,11.63958 11.63962,64.01774"
                   inkscape:connector-curvature="0" />
                <g
                   id="g2365-4-4-48">
                  <g
                     id="g2354-6-0-7">
                    <path
                       style="stroke-width:0.48498291"
                       id="path9253-4-1-9-9-1"
                       d="m -720.99063,137.68324 11.63954,-11.63959 -11.63954,-64.017732"
                       inkscape:connector-curvature="0" />
                    <path
                       style="stroke-width:0.48498291"
                       id="path9255-78-2-2-1-7"
                       d="m -720.99063,137.68325 -11.63962,-11.63959 -64.01769,11.63959"
                       inkscape:connector-curvature="0" />
                    <path
                       id="path9261-0-9-2-9-27"
                       d="m -720.99063,137.68325 -11.63962,-11.63959 11.63962,-64.017737"
                       inkscape:connector-curvature="0"
                       style="fill:url(#linearGradient5146);stroke-width:0.48498291" />
                    <path
                       id="path9263-3-3-4-6-2"
                       d="m -720.99063,137.68325 -11.63962,11.63958 -64.01769,-11.63958"
                       inkscape:connector-curvature="0"
                       style="fill:url(#linearGradient5148);stroke-width:0.48498291" />
                    <path
                       id="path9265-6-6-7-2-2"
                       d="m -720.99063,137.68325 11.63954,11.63958 -11.63954,64.01774"
                       inkscape:connector-curvature="0"
                       style="fill:url(#linearGradient5150);fill-opacity:1;stroke-width:0.48498291" />
                  </g>
                  <g
                     transform="rotate(-88.777582,-683.27569,137.69997)"
                     id="g2347-7-5-6">
                    <path
                       id="path9259-5-0-5-4-10"
                       d="m -684.05351,99.982785 11.8752,11.399045 -10.32781,64.24242"
                       inkscape:connector-curvature="0"
                       style="fill:url(#linearGradient5152);stroke-width:0.48498291" />
                    <path
                       style="stroke-width:0.48498291"
                       id="path9267-1-0-4-4-6"
                       d="m -683.93568,99.862518 -11.3991,11.875162 12.94649,63.7663"
                       inkscape:connector-curvature="0" />
                  </g>
                </g>
              </g>
            </g>
          </g>
        </g>
        <g
           transform="matrix(0.98639974,0,0,0.98639974,-155.11369,364.78062)"
           id="g2869-8-9-1">
          <g
             id="g2214-4-1-9-5"
             transform="matrix(0.31329436,0,0,0.31329436,-260.38017,100.12847)">
            <circle
               style="opacity:1;fill:#000000;fill-opacity:1;stroke:none;stroke-width:0.09896574;stroke-miterlimit:4;stroke-dasharray:none;stroke-opacity:1"
               id="path8689-9-2-7-2-3-9"
               cx="-1036.1711"
               cy="34.988876"
               r="88.677048"
               inkscape:export-xdpi="90"
               inkscape:export-ydpi="90" />
          </g>
          <g
             id="g4266-5-0-3-49"
             transform="translate(121.71908,-210.57823)">
            <path
               id="path9271-6-5-7-0"
               d="m -684.44914,321.66852 a 22.27667,22.27667 0 1 0 -44.55334,0 22.27667,22.27667 0 1 0 44.55334,0"
               inkscape:connector-curvature="0"
               style="fill:url(#linearGradient5154);fill-opacity:1;stroke-width:0.68754971" />
            <g
               style="fill:#006680;fill-opacity:1"
               id="g8980-3-6-3-9"
               transform="matrix(0.0184159,0,0,0.0184159,87.374933,205.41373)">
              <path
                 inkscape:connector-curvature="0"
                 id="path8982-9-6-2-1"
                 transform="matrix(5.9665395,0,0,5.9665395,-57933.919,1006.5286)"
                 d="m 2502.7891,756.22266 c -27.5046,0 -49.7989,22.29419 -49.7989,49.79882 0,14.72296 6.3883,27.95484 16.545,37.07227 l -16.6075,22.7832 c -5.117,-2.74514 -10.9663,-4.30664 -17.1797,-4.30664 -11.8226,0 -22.3249,5.63965 -28.9726,14.37305 l -24.1192,-13.5293 c 0.8936,-2.67275 1.377,-5.53259 1.377,-8.50586 0,-14.81017 -12.0063,-26.8164 -26.8164,-26.8164 -14.8103,0 -26.8164,12.00623 -26.8164,26.8164 0,14.8102 12.0061,26.81641 26.8164,26.81641 8.2296,2e-5 15.5907,-3.70748 20.5098,-9.54297 l 24.1191,13.5293 c -1.6071,4.10749 -2.4883,8.57892 -2.4883,13.25586 0,8.04945 2.6167,15.48317 7.041,21.50976 l -24.9375,24.23438 c -4.8131,-3.49169 -10.7298,-5.55078 -17.1308,-5.55078 -16.1325,0 -29.211,13.08232 -29.211,29.21484 0,16.13253 13.0785,29.20898 29.211,29.20898 16.1324,0 29.209,-13.07645 29.209,-29.20898 0,-6.10076 -1.8718,-11.76614 -5.0703,-16.45117 l 24.9374,-24.23438 c 6.1675,4.80414 13.9185,7.66797 22.3418,7.66797 20.0996,0 36.3965,-16.29108 36.3965,-36.39062 0,-10.26934 -4.2565,-19.54525 -11.0976,-26.16211 l 16.6133,-22.78321 c 7.3774,4.321 15.9617,6.80469 25.1289,6.80469 7.4517,0 14.5198,-1.64086 20.8671,-4.57422 l 16.5547,28.04883 c -2.8867,2.00359 -5.6622,4.25206 -8.291,6.74414 -27.9691,26.51592 -29.1479,70.68448 -2.6347,98.6543 26.513,27.96978 70.681,29.14678 98.6503,2.63086 27.9692,-26.51592 29.148,-70.68448 2.6348,-98.6543 -21.615,-22.80268 -54.9619,-27.79833 -81.7012,-14.49805 l -16.5605,-28.04101 c 12.3014,-9.06784 20.2852,-23.66044 20.2852,-40.11524 0,-27.50463 -22.3002,-49.79882 -49.8047,-49.79882 z m 26.414,16.78125 c 8.659,8.17626 13.9362,19.86526 13.5938,32.70703 -0.6388,23.94564 -20.569,42.8394 -44.5137,42.19922 -14.6832,-0.39258 -27.4644,-8.04034 -35.0098,-19.41797 7.4873,7.06917 17.5026,11.51569 28.6055,11.8125 23.9447,0.64025 43.8748,-18.25165 44.5137,-42.19727 0.247,-9.26262 -2.4296,-17.92654 -7.1895,-25.10351 z m -158.2246,64.30273 c 4.3712,4.12779 7.0345,10.02661 6.8613,16.50977 -0.3223,12.08896 -10.384,21.62789 -22.4726,21.30468 -7.4127,-0.19818 -13.8644,-4.05873 -17.6738,-9.80273 3.7799,3.56889 8.8361,5.81304 14.4414,5.96289 12.0885,0.32324 22.1502,-9.21378 22.4726,-21.30273 0.1247,-4.67627 -1.2262,-9.04857 -3.6289,-12.67188 z m 84.3281,37.55664 c 6.0308,5.69481 9.7053,13.83493 9.4668,22.7793 -0.4448,16.67828 -14.326,29.83846 -31.0039,29.39258 -10.2268,-0.27345 -19.1275,-5.60082 -24.3828,-13.52539 5.2149,4.9237 12.1906,8.01982 19.9238,8.22656 16.6777,0.44594 30.559,-12.71038 31.004,-29.38867 0.1721,-6.4515 -1.6927,-12.48557 -5.0079,-17.48438 z m 161.461,19.00977 c 11.8056,11.1475 19.0001,27.08145 18.5332,44.58984 -0.8709,32.64742 -28.0431,58.40801 -60.6895,57.53516 -20.0188,-0.53522 -37.4432,-10.96235 -47.7304,-26.47461 10.2079,9.63806 23.862,15.70076 39,16.10547 32.646,0.87288 59.8184,-24.88395 60.6894,-57.53125 0.3367,-12.62868 -3.313,-24.43949 -9.8027,-34.22461 z m -237.3867,55.49414 c 4.7613,4.49634 7.6631,10.92237 7.4746,17.98437 -0.351,13.16834 -11.3108,23.5591 -24.4785,23.20703 -8.0746,-0.21587 -15.1027,-4.42087 -19.252,-10.67773 4.1175,3.88753 9.6248,6.33091 15.7305,6.49414 13.1679,0.3521 24.1272,-10.03481 24.4785,-23.20312 0.1359,-5.0938 -1.3359,-9.85787 -3.9531,-13.80469 z"
                 style="color:#000000;font-style:normal;font-variant:normal;font-weight:normal;font-stretch:normal;font-size:medium;line-height:normal;font-family:Sans;-inkscape-font-specification:Sans;text-indent:0;text-align:start;text-decoration:none;text-decoration-line:none;letter-spacing:normal;word-spacing:normal;text-transform:none;writing-mode:lr-tb;direction:ltr;baseline-shift:baseline;text-anchor:start;display:inline;overflow:visible;visibility:visible;fill:#006680;fill-opacity:1;stroke:none;stroke-width:10.05607986;marker:none;enable-background:accumulate" />
              <path
                 sodipodi:nodetypes="cssssscsccssssscccc"
                 inkscape:connector-curvature="0"
                 id="path8986-1-4-4-6-7"
                 d="m -42895.965,6713.1505 c -96.932,140.1985 -135.531,259.4446 -88.619,308.9274 49.562,52.2784 186.11,17.7702 342.191,-83.3311 78.225,-50.6697 162.348,-116.8822 245.025,-195.2524 82.663,-78.3589 153.312,-158.8334 208.079,-234.2227 109.304,-150.4597 151.031,-284.9683 101.466,-337.2502 -46.908,-49.4791 -168.043,-17.2975 -313.196,71.9913 3.028,-0.1051 6.068,-0.2599 9.063,-0.2751 5.167,-0.026 10.288,0.077 15.344,0.3198 2.99,0.1426 5.913,0.4404 8.861,0.6774 61.895,-24.4792 110.189,-27.1829 133.572,-2.518 15.566,16.4178 21.209,46.0895 13.222,79.9983 -20.49,86.9906 -112.626,220.9583 -246.244,347.6183 -133.651,126.6902 -272.356,211.5056 -360.318,227.2929 -34.26,6.1496 -63.573,-1.0547 -79.129,-17.4622 -23.377,-24.6569 -18.112,-72.713 9.608,-133.1755 -0.08,-2.9657 -0.212,-5.9204 -0.194,-8.9244 0.03,-5.0618 0.198,-10.1808 0.5,-15.3376 0.177,-3.0027 0.501,-6.0445 0.769,-9.0762 z"
                 style="color:#000000;display:inline;overflow:visible;visibility:visible;fill:#006680;fill-opacity:1;fill-rule:evenodd;stroke:none;stroke-width:16;marker:none;enable-background:accumulate" />
              <path
                 inkscape:connector-curvature="0"
                 id="path8994-5-8-0-5-71"
                 d="m -43240.178,6661.9344 c 0,59.9585 -48.608,108.5543 -108.567,108.5543 0,0 0,0.01 0,0.012 59.954,0 108.56,48.6013 108.567,108.5542 0,-59.9529 48.612,-108.5542 108.566,-108.5542 0,0 0,-0.01 0,-0.012 -59.959,0 -108.566,-48.5958 -108.566,-108.5543 z"
                 style="color:#000000;display:inline;overflow:visible;visibility:visible;fill:#006680;fill-opacity:1;fill-rule:evenodd;stroke:none;stroke-width:32;marker:none;enable-background:accumulate" />
              <path
                 style="color:#000000;display:inline;overflow:visible;visibility:visible;fill:#006680;fill-opacity:1;fill-rule:evenodd;stroke:none;stroke-width:32;marker:none;enable-background:accumulate"
                 d="m -42537.502,5711.1452 c 0,41.0223 -33.256,74.2705 -74.279,74.2705 0,0 0,0.01 0,0.01 41.019,0 74.274,33.2519 74.279,74.2704 0,-41.0185 33.259,-74.2704 74.279,-74.2704 0,0 0,-0.01 0,-0.01 -41.023,0 -74.279,-33.2482 -74.279,-74.2705 z"
                 id="path8996-4-1-0-2-1"
                 inkscape:connector-curvature="0" />
              <path
                 inkscape:connector-curvature="0"
                 id="path8998-2-2-4-6-59"
                 d="m -43663.216,5471.1452 c 0,94.6717 -76.749,171.4022 -171.422,171.4022 0,0 0,0.023 0,0.023 94.664,0 171.41,76.7391 171.422,171.402 0,-94.6629 76.755,-171.402 171.422,-171.402 0,0 0,-0.023 0,-0.023 -94.674,0 -171.422,-76.7305 -171.422,-171.4022 z"
                 style="color:#000000;display:inline;overflow:visible;visibility:visible;fill:#006680;fill-opacity:1;fill-rule:evenodd;stroke:none;stroke-width:32;marker:none;enable-background:accumulate" />
              <path
                 transform="matrix(0.84315442,0,0,0.84315442,-6845.7194,876.64949)"
                 inkscape:connector-curvature="0"
                 id="path8998-2-3-93-6-5-7"
                 d="m -43646.236,5525.6056 c 0,35.1515 -28.497,63.6414 -63.649,63.6414 0,0 0,0.01 0,0.01 35.149,0 63.645,28.4931 63.649,63.6413 0,-35.1482 28.499,-63.6413 63.649,-63.6413 0,0 0,-0.01 0,-0.01 -35.153,0 -63.649,-28.4899 -63.649,-63.6414 z"
                 style="color:#000000;display:inline;overflow:visible;visibility:visible;opacity:1;fill:#72acb6;fill-opacity:1;fill-rule:evenodd;stroke:none;stroke-width:11.88154984;marker:none;filter:url(#filter9945-6-2-6-9);enable-background:accumulate" />
              <path
                 transform="matrix(0.72818271,0,0,0.72818271,-10737.571,1715.9409)"
                 inkscape:connector-curvature="0"
                 id="path8998-2-3-9-9-2-8-76"
                 d="m -43646.236,5525.6056 c 0,35.1515 -28.497,63.6414 -63.649,63.6414 0,0 0,0.01 0,0.01 35.149,0 63.645,28.4931 63.649,63.6413 0,-35.1482 28.499,-63.6413 63.649,-63.6413 0,0 0,-0.01 0,-0.01 -35.153,0 -63.649,-28.4899 -63.649,-63.6414 z"
                 style="color:#000000;display:inline;overflow:visible;visibility:visible;opacity:1;fill:#72acb6;fill-opacity:1;fill-rule:evenodd;stroke:none;stroke-width:11.88154984;marker:none;filter:url(#filter9945-0-6-3-3-7);enable-background:accumulate" />
              <path
                 transform="matrix(0.8431544,0,0,0.8431544,-6401.1554,2051.3776)"
                 inkscape:connector-curvature="0"
                 id="path8998-2-3-6-0-6-7-7"
                 d="m -43646.236,5525.6056 c 0,35.1515 -28.497,63.6414 -63.649,63.6414 0,0 0,0.01 0,0.01 35.149,0 63.645,28.4931 63.649,63.6413 0,-35.1482 28.499,-63.6413 63.649,-63.6413 0,0 0,-0.01 0,-0.01 -35.153,0 -63.649,-28.4899 -63.649,-63.6414 z"
                 style="color:#000000;display:inline;overflow:visible;visibility:visible;opacity:1;fill:#72acb6;fill-opacity:1;fill-rule:evenodd;stroke:none;stroke-width:11.88154984;marker:none;filter:url(#filter9945-1-6-0-1-5);enable-background:accumulate" />
            </g>
            <path
               inkscape:export-ydpi="90"
               inkscape:export-xdpi="90"
               id="path4320-8-6-0-0-2-7-2-2-8-1-4-6-1-5-88-7-9-36"
               d="m 250.24783,128.26261 c -0.64703,0.86136 -1.64682,1.45794 -2.81037,1.56441 -2.16968,0.19866 -4.08708,-1.38119 -4.28227,-3.52867 -0.11975,-1.31683 0.43612,-2.54092 1.38409,-3.33693 -0.55942,0.74483 -0.85514,1.68764 -0.76439,2.68343 0.19521,2.14751 2.11221,3.72734 4.28187,3.52871 0.83932,-0.0768 1.59332,-0.40886 2.1913,-0.91087 z"
               style="opacity:0.74500002;vector-effect:none;fill:#f9fff7;fill-opacity:1;stroke:none;stroke-width:0.178608;stroke-linecap:butt;stroke-linejoin:miter;stroke-miterlimit:4;stroke-dasharray:none;stroke-dashoffset:0;stroke-opacity:1;marker:none;marker-start:none;marker-mid:none;marker-end:none;paint-order:normal;filter:url(#filter3834-6-0-3-1-9-5-7-3-6-8-2-3-2-3-8-8-9-5)"
               inkscape:connector-curvature="0"
               transform="matrix(0.70701108,0.12465635,0.25428858,-0.62672355,-918.9268,370.11023)" />
            <path
               inkscape:export-ydpi="90"
               inkscape:export-xdpi="90"
               id="path4320-8-6-0-0-2-7-2-2-8-1-4-6-1-5-2-50-5-6-5"
               d="m 250.24783,128.26261 c -0.64703,0.86136 -1.64682,1.45794 -2.81037,1.56441 -2.16968,0.19866 -4.08708,-1.38119 -4.28227,-3.52867 -0.11975,-1.31683 0.43612,-2.54092 1.38409,-3.33693 -0.55942,0.74483 -0.85514,1.68764 -0.76439,2.68343 0.19521,2.14751 2.11221,3.72734 4.28187,3.52871 0.83932,-0.0768 1.59332,-0.40886 2.1913,-0.91087 z"
               style="opacity:0.74500002;vector-effect:none;fill:#f9fff7;fill-opacity:1;stroke:none;stroke-width:0.178608;stroke-linecap:butt;stroke-linejoin:miter;stroke-miterlimit:4;stroke-dasharray:none;stroke-dashoffset:0;stroke-opacity:1;marker:none;marker-start:none;marker-mid:none;marker-end:none;paint-order:normal;filter:url(#filter3834-6-0-3-1-9-5-7-3-6-8-2-3-2-3-0-2-0-1-74)"
               inkscape:connector-curvature="0"
               transform="matrix(0.5251795,0.09259679,0.18888976,-0.4655406,-874.27987,353.2159)" />
            <path
               inkscape:export-ydpi="90"
               inkscape:export-xdpi="90"
               id="path4320-8-6-0-0-2-7-2-2-8-1-4-6-1-5-2-0-9-6-0-6"
               d="m 250.24783,128.26261 c -0.64703,0.86136 -1.64682,1.45794 -2.81037,1.56441 -2.16968,0.19866 -4.08708,-1.38119 -4.28227,-3.52867 -0.11975,-1.31683 0.43612,-2.54092 1.38409,-3.33693 -0.55942,0.74483 -0.85514,1.68764 -0.76439,2.68343 0.19521,2.14751 2.11221,3.72734 4.28187,3.52871 0.83932,-0.0768 1.59332,-0.40886 2.1913,-0.91087 z"
               style="opacity:0.74500002;vector-effect:none;fill:#f9fff7;fill-opacity:1;stroke:none;stroke-width:0.178608;stroke-linecap:butt;stroke-linejoin:miter;stroke-miterlimit:4;stroke-dasharray:none;stroke-dashoffset:0;stroke-opacity:1;marker:none;marker-start:none;marker-mid:none;marker-end:none;paint-order:normal;filter:url(#filter3834-6-0-3-1-9-5-7-3-6-8-2-3-2-3-0-9-2-6-9-3)"
               inkscape:connector-curvature="0"
               transform="matrix(0.52517951,0.09259679,0.18888976,-0.4655406,-873.61551,365.38564)" />
            <path
               inkscape:export-ydpi="90"
               inkscape:export-xdpi="90"
               id="path4320-8-6-0-0-2-7-2-2-8-1-4-6-1-5-2-3-6-9-4-3"
               d="m 250.24783,128.26261 c -0.64703,0.86136 -1.64682,1.45794 -2.81037,1.56441 -2.16968,0.19866 -4.08708,-1.38119 -4.28227,-3.52867 -0.11975,-1.31683 0.43612,-2.54092 1.38409,-3.33693 -0.55942,0.74483 -0.85514,1.68764 -0.76439,2.68343 0.19521,2.14751 2.11221,3.72734 4.28187,3.52871 0.83932,-0.0768 1.59332,-0.40886 2.1913,-0.91087 z"
               style="opacity:0.74500002;vector-effect:none;fill:#f9fff7;fill-opacity:1;stroke:none;stroke-width:0.178608;stroke-linecap:butt;stroke-linejoin:miter;stroke-miterlimit:4;stroke-dasharray:none;stroke-dashoffset:0;stroke-opacity:1;marker:none;marker-start:none;marker-mid:none;marker-end:none;paint-order:normal;filter:url(#filter3834-6-0-3-1-9-5-7-3-6-8-2-3-2-3-0-8-7-8-0-7)"
               inkscape:connector-curvature="0"
               transform="matrix(1.0504707,0.18521328,0.37781968,-0.9311802,-1011.8001,383.33468)" />
            <path
               inkscape:export-ydpi="90"
               inkscape:export-xdpi="90"
               id="path4320-8-6-0-0-2-7-2-2-8-1-4-6-1-5-2-3-0-3-8-1-9"
               d="m 250.24783,128.26261 c -0.64703,0.86136 -1.64682,1.45794 -2.81037,1.56441 -2.16968,0.19866 -4.08708,-1.38119 -4.28227,-3.52867 -0.11975,-1.31683 0.43612,-2.54092 1.38409,-3.33693 -0.55942,0.74483 -0.85514,1.68764 -0.76439,2.68343 0.19521,2.14751 2.11221,3.72734 4.28187,3.52871 0.83932,-0.0768 1.59332,-0.40886 2.1913,-0.91087 z"
               style="opacity:0.74500002;vector-effect:none;fill:#f9fff7;fill-opacity:1;stroke:none;stroke-width:0.178608;stroke-linecap:butt;stroke-linejoin:miter;stroke-miterlimit:4;stroke-dasharray:none;stroke-dashoffset:0;stroke-opacity:1;marker:none;marker-start:none;marker-mid:none;marker-end:none;paint-order:normal;filter:url(#filter3834-6-0-3-1-9-5-7-3-6-8-2-3-2-3-0-8-1-92-6-5-6)"
               inkscape:connector-curvature="0"
               transform="matrix(1.3737269,0.24220804,0.49408424,-1.2177276,-1098.1041,419.18951)" />
          </g>
        </g>
      </g>
      <g
         inkscape:export-filename="/home/zoe/Desktop/logo-lichter.png"
         inkscape:export-ydpi="90"
         inkscape:export-xdpi="90"
         id="text9632-5-8-3-0-5-7-2-9-8-4-6-4"
         style="font-style:normal;font-variant:normal;font-weight:600;font-stretch:normal;font-size:21.8004818px;line-height:0.89999998;font-family:'Exo 2';-inkscape-font-specification:'Exo 2 Semi-Bold';letter-spacing:0.272506px;word-spacing:0px;opacity:1;fill:#e0dbe0;fill-opacity:1;stroke:none;stroke-width:0.545012"
         transform="matrix(0.2486924,0,0,0.2486924,857.55522,980.60806)"
         aria-label="LIBREPLANET 2022">
        <text
           transform="rotate(23.904905)"
           id="text10214-92-6-2-8"
           y="-247.68341"
           x="916.60974"
           style="font-style:normal;font-variant:normal;font-weight:normal;font-stretch:normal;font-size:22.18805885px;line-height:1.25;font-family:'Marked Fool';-inkscape-font-specification:'Marked Fool';letter-spacing:0px;word-spacing:0px;fill:#e0dbe0;fill-opacity:1;stroke:none;stroke-width:0.30231899"
           xml:space="preserve"><tspan
             style="font-style:normal;font-variant:normal;font-weight:600;font-stretch:normal;font-family:'Exo 2.0';-inkscape-font-specification:'Exo 2.0 Semi-Bold';fill:#e0dbe0;fill-opacity:1;stroke-width:0.30231899"
             y="-247.68341"
             x="916.60974"
             id="tspan10212-6-2-6-1"
             sodipodi:role="line">3</tspan></text>
        <path
           id="path1358-1-49-6-6-6-9-0-6-5-1-2"
           style="font-style:normal;font-variant:normal;font-weight:bold;font-stretch:normal;font-family:'Exo 2';-inkscape-font-specification:'Exo 2 Bold';fill:#e0dbe0;fill-opacity:1;stroke-width:0.545012"
           d="m 806.37658,242.24334 11.17174,-1.11501 q 0.5857,-0.0585 0.82004,-0.34475 0.23216,-0.30799 0.16938,-0.93708 l -0.51313,-5.14117 2.5012,-0.403 q 0.45729,2.16715 0.87082,6.31046 0.17321,1.73542 -0.61006,2.66803 -0.78327,0.93262 -2.23668,1.07768 l -11.84422,1.18213 z"
           inkscape:connector-curvature="0" />
        <path
           id="path1360-3-2-1-6-52-9-2-49-8-8-9"
           style="font-style:normal;font-variant:normal;font-weight:bold;font-stretch:normal;font-family:'Exo 2';-inkscape-font-specification:'Exo 2 Bold';fill:#e0dbe0;fill-opacity:1;stroke-width:0.545012"
           d="m 820.80445,228.87141 -0.0107,3.31365 -15.04226,-0.0488 0.0108,-3.31366 z"
           inkscape:connector-curvature="0" />
        <path
           id="path1362-1-7-5-4-4-3-4-5-6-7-3"
           style="font-style:normal;font-variant:normal;font-weight:bold;font-stretch:normal;font-family:'Exo 2';-inkscape-font-specification:'Exo 2 Bold';fill:#e0dbe0;fill-opacity:1;stroke-width:0.545012"
           d="m 813.99431,216.30618 0.0866,0.0104 q 0.35214,-1.64837 1.43376,-2.24276 1.05998,-0.59701 2.92138,-0.37292 2.251,0.27099 2.93538,1.51715 0.68438,1.24616 0.35085,4.01661 -0.50029,4.15569 -0.9314,6.27762 l -14.9345,-1.79791 q 0.0588,-1.94718 0.50171,-5.6267 0.35958,-2.9869 1.32016,-4.03502 0.93894,-1.05074 3.21158,-0.77714 1.62332,0.19543 2.39188,0.92473 0.74952,0.70505 0.71262,2.10591 z m -1.64604,4.91803 0.28923,-2.40251 q 0.14591,-1.21207 -0.19157,-1.69186 -0.33488,-0.50143 -1.48202,-0.63953 -1.1255,-0.13549 -1.55077,0.29638 -0.42528,0.43188 -0.58422,1.75218 l -0.29003,2.22674 z m 6.5149,0.78431 0.30226,-2.51073 q 0.16416,-1.36358 -0.16811,-1.88666 -0.35392,-0.52568 -1.58764,-0.6742 -1.34194,-0.16155 -1.8564,0.28154 -0.5361,0.4405 -0.72711,1.84476 l -0.29184,2.42415 z"
           inkscape:connector-curvature="0" />
        <path
           id="path1364-1-42-5-0-00-0-7-0-2-9-9"
           style="font-style:normal;font-variant:normal;font-weight:bold;font-stretch:normal;font-family:'Exo 2';-inkscape-font-specification:'Exo 2 Bold';fill:#e0dbe0;fill-opacity:1;stroke-width:0.545012"
           d="m 826.01135,200.08223 -0.96707,3.37401 -4.7342,-0.17766 q -0.75164,0.0113 -1.10523,0.29552 -0.36855,0.25722 -0.55475,0.90688 l -0.66368,2.23635 5.6583,1.62181 -0.90101,3.1435 -14.46008,-4.14463 q 0.37002,-2.00302 1.39115,-5.56565 0.83493,-2.91297 2.10542,-3.86416 1.27048,-0.95119 3.70145,-0.25442 1.5927,0.45651 2.30763,1.36446 0.72093,0.88698 0.48307,2.42896 l 0.10478,0.03 q 0.85175,-1.54746 2.76815,-1.42906 z m -10.47685,5.93232 0.66073,-2.30523 q 0.36041,-1.2574 0.0734,-1.83858 -0.30794,-0.58719 -1.50247,-0.92957 -1.19453,-0.34238 -1.74581,-0.001 -0.54527,0.31996 -0.91168,1.59831 l -0.63978,2.31124 z"
           inkscape:connector-curvature="0" />
        <path
           id="path1366-0-5-4-0-6-2-6-4-8-2-0"
           style="font-style:normal;font-variant:normal;font-weight:bold;font-stretch:normal;font-family:'Exo 2';-inkscape-font-specification:'Exo 2 Bold';fill:#e0dbe0;fill-opacity:1;stroke-width:0.545012"
           d="m 828.7919,187.66052 2.28275,0.87981 q -0.65668,1.95338 -2.71186,6.43118 -0.62746,1.36711 -1.7334,1.84299 -1.12574,0.46678 -2.40289,-0.0954 l -8.28194,-3.80117 q -1.25896,-0.60181 -1.6192,-1.75062 -0.38007,-1.15791 0.2474,-2.52502 2.05518,-4.4778 3.10812,-6.24931 l 2.17524,1.16628 -2.40983,5.25052 q -0.22734,0.49533 -0.0896,0.8224 0.13773,0.32707 0.67269,0.5726 l 2.08039,0.95484 2.50077,-5.44865 2.17946,1.00031 -2.50077,5.44865 2.63517,1.20946 q 0.55477,0.25462 0.89256,0.1458 0.33779,-0.10882 0.56513,-0.60415 z"
           inkscape:connector-curvature="0" />
        <path
           id="path1368-3-2-7-46-85-7-5-8-4-0-8"
           style="font-style:normal;font-variant:normal;font-weight:normal;font-stretch:normal;font-family:'Exo 2';-inkscape-font-specification:'Exo 2, ';fill:#e0dbe0;fill-opacity:1;stroke-width:0.545012"
           d="m 822.75398,173.33756 c -1.31443,2.03173 -1.90005,2.97708 -2.64175,4.44461 l 12.62973,8.17078 1.04207,-1.61075 -5.03359,-3.25647 c 0.58241,-0.7397 1.31876,-1.71736 2.02927,-2.81559 1.8473,-2.85542 1.66846,-4.42516 -1.44322,-6.43825 -3.09336,-2.00125 -4.61679,-1.53279 -6.58251,1.50567 z m 4.75179,6.94293 -5.1068,-3.30383 c 0.44352,-0.7257 1.04745,-1.6592 1.73427,-2.72083 1.18417,-1.8304 2.1176,-2.10932 4.14934,-0.79489 2.03174,1.31443 2.14163,2.26833 0.97577,4.11057 z"
           inkscape:connector-curvature="0" />
        <path
           id="path1370-4-4-6-2-4-9-7-7-7-2-8"
           style="font-style:normal;font-variant:normal;font-weight:normal;font-stretch:normal;font-family:'Exo 2';-inkscape-font-specification:'Exo 2, ';fill:#e0dbe0;fill-opacity:1;stroke-width:0.545012"
           d="m 829.95736,163.89761 -1.23685,1.43787 9.27178,7.97551 c 1.23954,1.06624 2.68877,1.22012 4.13886,-0.46566 1.26528,-1.47092 2.55899,-2.9749 3.68014,-4.51228 l -1.18071,-0.90062 -3.53994,4.11528 c -0.65396,0.76025 -1.28305,0.82299 -2.0433,0.16903 z"
           inkscape:connector-curvature="0" />
        <path
           id="path1372-0-4-5-6-94-9-1-1-2-3-5"
           style="font-style:normal;font-variant:normal;font-weight:normal;font-stretch:normal;font-family:'Exo 2';-inkscape-font-specification:'Exo 2, ';fill:#e0dbe0;fill-opacity:1;stroke-width:0.545012"
           d="m 850.68411,157.74134 4.21969,2.56235 1.49136,-1.30824 -13.21283,-7.72326 c -0.2812,-0.18833 -0.62364,-0.14893 -0.88585,0.0811 l -1.50775,1.32261 c -0.26222,0.23002 -0.34588,0.56441 -0.1958,0.86774 l 5.93631,14.10631 1.49136,-1.30824 -1.99084,-4.51751 z m -1.48592,-0.9005 -3.8677,3.39279 -2.51328,-5.7412 c -0.16044,-0.38125 -0.34964,-0.79528 -0.52646,-1.16216 l 0.45887,-0.40253 c 0.34072,0.22311 0.72658,0.46463 1.08368,0.67336 z"
           inkscape:connector-curvature="0" />
        <path
           id="path1374-3-3-6-7-6-5-3-7-4-7-0"
           style="font-style:normal;font-variant:normal;font-weight:normal;font-stretch:normal;font-family:'Exo 2';-inkscape-font-specification:'Exo 2, ';fill:#e0dbe0;fill-opacity:1;stroke-width:0.545012"
           d="m 860.25537,138.73534 -1.61137,1.00037 5.74927,9.26073 c 0.40245,0.64825 0.81192,1.26648 1.26291,1.91026 l -0.31486,0.19547 c -0.66877,-0.45725 -1.4391,-0.95409 -2.02036,-1.31171 l -9.67066,-6.23606 c -0.36664,-0.25992 -0.67387,-0.30013 -1.0443,-0.0702 l -1.53728,0.95438 c -0.42599,0.26446 -0.51027,0.6247 -0.2458,1.0507 l 7.53155,12.13155 1.62989,-1.01187 -5.94475,-9.57559 c -0.34496,-0.55565 -0.71993,-1.11831 -1.12045,-1.63946 l 0.29634,-0.18398 c 0.47013,0.42661 1.24748,0.89344 1.7687,1.23701 l 9.93829,6.37783 c 0.36665,0.25992 0.67387,0.30013 1.0443,0.0702 l 1.59284,-0.98888 c 0.40748,-0.25296 0.49175,-0.6132 0.22728,-1.0392 z"
           inkscape:connector-curvature="0" />
        <path
           id="path1376-9-8-9-5-8-2-3-2-0-5-9"
           style="font-style:normal;font-variant:normal;font-weight:normal;font-stretch:normal;font-family:'Exo 2';-inkscape-font-specification:'Exo 2, ';fill:#e0dbe0;fill-opacity:1;stroke-width:0.545012"
           d="m 879.67919,144.74501 -5.56709,2.33962 c -0.82401,0.34629 -1.37479,0.10482 -1.77177,-0.83978 l -1.59634,-3.79848 5.98914,-2.51699 -0.59968,-1.42694 -5.98915,2.51698 -1.26694,-3.01467 c -0.38853,-0.9245 -0.17559,-1.48693 0.64842,-1.83323 l 5.56709,-2.33961 -0.5024,-1.42054 c -1.89968,0.65647 -4.00995,1.54333 -5.99963,2.37951 -1.62792,0.68415 -2.26438,2.03941 -1.65946,3.53509 l 3.81772,9.08421 c 0.64512,1.47879 2.05864,1.97253 3.68656,1.28838 1.98968,-0.83618 4.09995,-1.72304 5.89827,-2.62068 z"
           inkscape:connector-curvature="0" />
        <path
           id="path1378-1-60-3-6-32-0-3-7-6-9-6"
           style="font-style:normal;font-variant:normal;font-weight:normal;font-stretch:normal;font-family:'Exo 2';-inkscape-font-specification:'Exo 2, ';fill:#e0dbe0;fill-opacity:1;stroke-width:0.545012"
           d="m 890.03187,129.66237 -0.43084,-1.64496 -11.24051,2.94402 0.43083,1.64496 4.68179,-1.22622 3.38038,12.90656 1.85584,-0.48607 -3.38037,-12.90656 z"
           inkscape:connector-curvature="0" />
        <path
           id="path1380-9-8-7-9-36-8-8-2-2-2-3"
           style="fill:#e0dbe0;fill-opacity:1;stroke-width:0.545012"
           d="m 904.34359,125.97154 c -1.4363,0.0853 -2.73686,0.24992 -4.79888,0.83102 l 0.27643,2.08012 c 1.90214,-0.33138 2.94414,-0.43695 4.38044,-0.52226 1.50158,-0.0892 2.31454,-0.006 2.42399,1.10084 0.0942,1.21739 -0.73455,2.70798 -2.42706,4.73033 l -3.65995,4.56333 c -0.28528,0.34453 -0.35164,0.6979 -0.3245,1.1549 l 0.0969,1.63216 10.2282,-0.60753 -0.15253,-2.56793 -4.63534,0.27533 c -0.73991,0.0439 -1.58734,0.11612 -2.32079,0.26888 l 3.72782,-4.52369 c 1.85239,-2.27208 2.30229,-3.52178 2.1963,-5.30627 -0.16675,-2.80732 -2.05143,-3.28502 -5.01108,-3.10923 z"
           inkscape:connector-curvature="0" />
        <path
           id="path1382-6-9-4-8-2-3-5-26-9-2-8"
           style="fill:#e0dbe0;fill-opacity:1;stroke-width:0.545012"
           d="m 919.92289,126.15798 c -4.08264,-0.36012 -5.66403,1.6889 -6.15823,7.29167 -0.49421,5.60277 0.70407,7.89698 4.78671,8.2571 4.08264,0.36012 5.68574,-1.68699 6.17995,-7.28976 0.49421,-5.60277 -0.72579,-7.89889 -4.80843,-8.25901 z m -0.22285,2.27828 c 2.19334,0.19347 2.75161,1.55582 2.38191,5.74704 -0.3697,4.19122 -1.15783,5.43481 -3.35116,5.24134 -2.12819,-0.18772 -2.68646,-1.55008 -2.31676,-5.74129 0.3697,-4.19122 1.15783,-5.43481 3.28601,-5.24709 z"
           inkscape:connector-curvature="0" />
        <path
           id="path1384-9-2-5-7-2-5-1-1-9-8-5"
           style="fill:#e0dbe0;fill-opacity:1;stroke-width:0.545012"
           d="m 935.02513,128.63513 c -1.39897,-0.33634 -2.69114,-0.55732 -4.83302,-0.60142 l -0.34086,2.07053 c 1.91626,0.2365 2.94388,0.43872 4.34285,0.77506 1.46255,0.35163 2.21625,0.66737 1.99874,1.75858 -0.26419,1.1921 -1.49078,2.37703 -3.69855,3.81934 l -4.82949,3.3008 c -0.37319,0.2466 -0.53952,0.56536 -0.64653,1.01049 l -0.38221,1.58973 9.96234,2.39518 0.60134,-2.50119 -4.51485,-1.08547 c -0.72068,-0.17327 -1.55244,-0.35082 -2.2986,-0.4181 l 4.88289,-3.24312 c 2.4334,-1.63471 3.22749,-2.6994 3.64538,-4.43751 0.65739,-2.73435 -1.00671,-3.73982 -3.88943,-4.4329 z"
           inkscape:connector-curvature="0" />
      </g>
      <g
         inkscape:export-ydpi="90"
         inkscape:export-xdpi="90"
         inkscape:export-filename="/home/zoe/Desktop/logo-lichter.png"
         aria-label="CHARTING THE COURSE"
         transform="matrix(0.19621642,-0.28541438,0.30271244,0.18476155,1323.3833,665.25365)"
         style="font-style:normal;font-variant:normal;font-weight:normal;font-stretch:normal;font-size:16.68778992px;line-height:1.25;font-family:'Marked Fool';-inkscape-font-specification:'Marked Fool';letter-spacing:0px;word-spacing:0px;fill:#5597a8;fill-opacity:1;stroke:none;stroke-width:0.41719475"
         id="text2101-3-0-0-9-6">
        <g
           style="fill:#5597a8;fill-opacity:1"
           id="g2175-6-8-7-1">
          <path
             inkscape:connector-curvature="0"
             id="path2123-15-1-3-1"
             style="font-style:normal;font-variant:normal;font-weight:600;font-stretch:normal;font-family:'Exo 2.0';-inkscape-font-specification:'Exo 2.0 Semi-Bold';fill:#5597a8;fill-opacity:1;stroke-width:0.41719475"
             d="m -1355.9232,36.409039 c 0.01,-0.993562 0.102,-1.890337 0.3102,-3.344038 0.2696,-1.883204 1.3105,-2.324202 4.4326,-1.877189 3.1222,0.447014 3.9975,1.162369 3.7279,3.045573 -0.1963,1.371105 -0.3263,2.043668 -0.5555,3.056041 l 1.5409,0.422921 c 0.4062,-0.953318 0.6141,-1.699016 0.8317,-3.218795 0.4896,-3.419502 -0.8882,-4.864257 -5.2328,-5.486292 -4.3445,-0.622034 -6.0724,0.378072 -6.562,3.797574 -0.2247,1.569337 -0.2415,2.510976 -0.072,3.563593 z" />
          <path
             inkscape:connector-curvature="0"
             id="path2125-9-3-6-5"
             style="font-style:normal;font-variant:normal;font-weight:600;font-stretch:normal;font-family:'Exo 2.0';-inkscape-font-specification:'Exo 2.0 Semi-Bold';fill:#5597a8;fill-opacity:1;stroke-width:0.41719475"
             d="m -1346.4968,47.510746 v -2.08597 l -4.5224,0.0085 -0.01,-4.555758 4.5224,-0.0085 v -2.08597 l -11.5146,0.02175 v 2.08597 l 5.2733,-0.01 0.01,4.555759 -5.2733,0.01 v 2.08597 z" />
          <path
             inkscape:connector-curvature="0"
             id="path2127-4-1-1-9"
             style="font-style:normal;font-variant:normal;font-weight:600;font-stretch:normal;font-family:'Exo 2.0';-inkscape-font-specification:'Exo 2.0 Semi-Bold';fill:#5597a8;fill-opacity:1;stroke-width:0.41719475"
             d="m -1353.6252,55.709426 -3.07,1.438479 0.3272,2.110825 10.3053,-5.09317 c 0.3309,-0.152629 0.4828,-0.480141 0.4291,-0.826448 l -0.3119,-2.01188 c -0.054,-0.346307 -0.2975,-0.612465 -0.6592,-0.657725 l -11.3636,-1.734028 0.3272,2.110824 3.3614,0.441474 z m 1.6218,-0.758036 -0.501,-3.2322 4.1012,0.529437 1.0138,0.113024 0.069,0.445252 c -0.3057,0.09804 -0.6341,0.267166 -0.9347,0.398192 z" />
          <path
             inkscape:connector-curvature="0"
             id="path2129-9-1-2-8"
             style="font-style:normal;font-variant:normal;font-weight:600;font-stretch:normal;font-family:'Exo 2.0';-inkscape-font-specification:'Exo 2.0 Semi-Bold';fill:#5597a8;fill-opacity:1;stroke-width:0.41719475"
             d="m -1353.4278,68.814131 3.1401,-2.050197 c 0.9788,-0.563544 1.214,-1.386895 1.1745,-1.968435 l 0.08,-0.02457 c 0.6582,1.45608 1.7662,1.70838 3.4088,1.202235 2.5038,-0.771501 2.8775,-2.108984 2.0421,-4.820122 -0.5798,-1.881849 -0.8611,-2.738121 -1.3769,-3.958691 l -11.0041,3.390677 0.6094,1.977536 4.4175,-1.361184 0.5934,1.98245 c 0.2064,0.669811 0.053,1.136098 -0.5956,1.5805 l -3.1426,1.928734 z m 4.1179,-8.113982 3.4607,-1.066343 0.6094,1.977537 c 0.4324,1.403413 0.2191,1.958062 -1.1364,2.375754 -1.3556,0.417692 -1.8759,0.08909 -2.3243,-1.309411 z" />
          <path
             inkscape:connector-curvature="0"
             id="path2131-09-0-9-4"
             style="font-style:normal;font-variant:normal;font-weight:600;font-stretch:normal;font-family:'Exo 2.0';-inkscape-font-specification:'Exo 2.0 Semi-Bold';fill:#5597a8;fill-opacity:1;stroke-width:0.41719475"
             d="m -1340.4097,73.786589 1.6169,-0.757516 -3.8937,-8.311403 -1.617,0.757516 1.4938,3.188556 -8.8101,4.1274 0.8921,1.904067 8.81,-4.1274 z" />
          <path
             inkscape:connector-curvature="0"
             id="path2133-1-3-3-8"
             style="font-style:normal;font-variant:normal;font-weight:600;font-stretch:normal;font-family:'Exo 2.0';-inkscape-font-specification:'Exo 2.0 Semi-Bold';fill:#5597a8;fill-opacity:1;stroke-width:0.41719475"
             d="m -1347.2272,81.071046 9.8902,-5.896547 -1.0682,-1.791704 -9.8902,5.896547 z" />
          <path
             inkscape:connector-curvature="0"
             id="path2135-7-4-1-1"
             style="font-style:normal;font-variant:normal;font-weight:600;font-stretch:normal;font-family:'Exo 2.0';-inkscape-font-specification:'Exo 2.0 Semi-Bold';fill:#5597a8;fill-opacity:1;stroke-width:0.41719475"
             d="m -1331.1237,83.788354 -1.2338,-1.619444 -5.9203,4.510554 c -0.4911,0.374193 -0.962,0.774936 -1.4361,1.199065 l -0.1214,-0.159289 c 0.3395,-0.573306 0.6947,-1.263549 0.9615,-1.739514 l 3.5543,-6.652122 c 0.2238,-0.422237 0.2516,-0.716161 -0.021,-1.074562 l -0.981,-1.287591 c -0.3034,-0.398224 -0.6878,-0.46207 -1.086,-0.15867 l -8.5485,6.512997 1.2439,1.632717 6.1061,-4.65214 c 0.4513,-0.343854 0.9058,-0.711095 1.3199,-1.131433 l 0.1213,0.15929 c -0.354,0.416546 -0.7124,1.130177 -0.9526,1.585914 l -3.6529,6.853128 c -0.2339,0.408962 -0.2516,0.71616 0.021,1.074561 l 1.0013,1.314139 c 0.3034,0.398224 0.6776,0.448797 1.0758,0.145396 z" />
          <path
             inkscape:connector-curvature="0"
             id="path2137-7-0-9-0"
             style="font-style:normal;font-variant:normal;font-weight:600;font-stretch:normal;font-family:'Exo 2.0';-inkscape-font-specification:'Exo 2.0 Semi-Bold';fill:#5597a8;fill-opacity:1;stroke-width:0.41719475"
             d="m -1327.9183,93.640262 -1.4684,-1.410309 -2.9477,3.069027 c -0.8061,-0.172596 -1.614,-0.439573 -2.3,-1.098487 -1.1193,-1.075072 -0.7873,-2.167588 1.3513,-4.394138 2.601,-2.707965 3.4667,-2.501165 5.0434,-0.986817 0.5656,0.543316 1.385,1.37658 2.1211,2.176116 l 1.1954,-1.003693 c -0.5377,-0.909756 -1.2867,-1.768043 -2.1172,-2.565676 -2.6839,-2.57786 -4.5479,-2.540296 -7.7384,0.781475 -2.8784,2.996814 -3.4149,5.073053 -1.5735,6.841719 1.1434,1.098192 2.5176,1.353757 3.3675,1.360234 l -0.6537,0.945567 1.1193,1.075071 z" />
          <path
             inkscape:connector-curvature="0"
             id="path2139-1-3-4-3"
             style="font-style:normal;font-variant:normal;font-weight:600;font-stretch:normal;font-family:'Exo 2.0';-inkscape-font-specification:'Exo 2.0 Semi-Bold';fill:#5597a8;fill-opacity:1;stroke-width:0.41719475"
             d="m -1315.8379,97.875057 0.8945,-1.540289 -7.9756,-4.587986 -0.8945,1.540289 3.0598,1.760117 -4.8738,8.392422 1.8272,1.05106 4.8737,-8.392415 z" />
          <path
             inkscape:connector-curvature="0"
             id="path2141-1-9-7-0"
             style="font-style:normal;font-variant:normal;font-weight:600;font-stretch:normal;font-family:'Exo 2.0';-inkscape-font-specification:'Exo 2.0 Semi-Bold';fill:#5597a8;fill-opacity:1;stroke-width:0.41719475"
             d="m -1306.6188,100.0755 -1.8946,-0.872726 -1.8921,4.107556 -4.1379,-1.90604 1.8921,-4.107559 -1.8947,-0.87273 -4.8174,10.458369 1.8946,0.87273 2.2063,-4.78963 4.1378,1.90604 -2.2062,4.78963 1.8946,0.87273 z" />
          <path
             inkscape:connector-curvature="0"
             id="path2143-5-1-8-4"
             style="font-style:normal;font-variant:normal;font-weight:600;font-stretch:normal;font-family:'Exo 2.0';-inkscape-font-specification:'Exo 2.0 Semi-Bold';fill:#5597a8;fill-opacity:1;stroke-width:0.41719475"
             d="m -1301.4629,111.85992 -4.3195,-1.28195 c -0.576,-0.17092 -0.7287,-0.47737 -0.5245,-1.16529 l 0.7311,-2.4637 4.5275,1.34367 0.4558,-1.53582 -4.5275,-1.34367 0.5745,-1.93577 c 0.2042,-0.68792 0.4994,-0.86142 1.0753,-0.69049 l 4.3195,1.28195 0.5518,-1.50733 c -1.4178,-0.56005 -3.2096,-1.09182 -4.8254,-1.57137 -1.4399,-0.42731 -2.5891,0.10196 -2.9897,1.39306 l -2.0511,6.91117 c -0.3686,1.3006 0.2899,2.36639 1.7457,2.79845 1.6158,0.47955 3.4076,1.01132 4.9014,1.3154 z" />
          <path
             inkscape:connector-curvature="0"
             id="path2145-9-9-4-4"
             style="font-style:normal;font-variant:normal;font-weight:600;font-stretch:normal;font-family:'Exo 2.0';-inkscape-font-specification:'Exo 2.0 Semi-Bold';fill:#5597a8;fill-opacity:1;stroke-width:0.41719475"
             d="m -1288.4359,113.63462 c -0.9932,0.0249 -1.8926,-0.0405 -3.3523,-0.20126 -1.891,-0.20822 -2.3656,-1.23423 -2.0204,-4.36927 0.3452,-3.13504 1.0317,-4.03319 2.9227,-3.82497 1.3768,0.1516 2.0532,0.25966 3.0725,0.45585 l 0.3726,-1.5539 c -0.9661,-0.37499 -1.7181,-0.55854 -3.2442,-0.72658 -3.4336,-0.37809 -4.8328,1.04598 -5.3132,5.4085 -0.4803,4.36252 0.5755,6.05691 4.0091,6.435 1.5758,0.17352 2.5175,0.15969 3.564,-0.0441 z" />
          <path
             inkscape:connector-curvature="0"
             id="path2147-7-6-5-4"
             style="font-style:normal;font-variant:normal;font-weight:600;font-stretch:normal;font-family:'Exo 2.0';-inkscape-font-specification:'Exo 2.0 Semi-Bold';fill:#5597a8;fill-opacity:1;stroke-width:0.41719475"
             d="m -1282.8411,103.64027 c -3.5025,0.11685 -4.6899,1.55902 -4.5375,6.12893 0.1525,4.56991 1.4334,5.92973 4.9359,5.81288 3.5192,-0.11741 4.7067,-1.55958 4.5542,-6.12949 -0.1525,-4.56992 -1.4334,-5.92973 -4.9526,-5.81232 z m 0.06,1.7846 c 1.9513,-0.0651 2.5846,0.89889 2.6914,4.10117 0.1069,3.20227 -0.4607,4.20634 -2.4121,4.27144 -1.9347,0.0646 -2.568,-0.89945 -2.6748,-4.10173 -0.1068,-3.20227 0.4608,-4.20634 2.3955,-4.27088 z" />
          <path
             inkscape:connector-curvature="0"
             id="path2149-7-9-0-4"
             style="font-style:normal;font-variant:normal;font-weight:600;font-stretch:normal;font-family:'Exo 2.0';-inkscape-font-specification:'Exo 2.0 Semi-Bold';fill:#5597a8;fill-opacity:1;stroke-width:0.41719475"
             d="m -1269.1354,101.9846 -2.0652,0.39499 1.3166,6.8841 c 0.4169,2.17996 -0.022,2.99448 -1.6938,3.31423 -1.7046,0.32603 -2.4131,-0.26905 -2.83,-2.44902 l -1.3167,-6.88409 -2.0488,0.39186 1.3166,6.88409 c 0.6458,3.37649 2.0673,4.41286 5.2963,3.79529 3.0978,-0.59248 3.9874,-2.07087 3.3416,-5.44735 z" />
          <path
             inkscape:connector-curvature="0"
             id="path2151-6-3-3-7"
             style="font-style:normal;font-variant:normal;font-weight:600;font-stretch:normal;font-family:'Exo 2.0';-inkscape-font-specification:'Exo 2.0 Semi-Bold';fill:#5597a8;fill-opacity:1;stroke-width:0.41719475"
             d="m -1256.1999,110.12914 -2.1735,-3.05599 c -0.6021,-0.95564 -1.4341,-1.15792 -2.0136,-1.09531 l -0.028,-0.0787 c 1.4288,-0.71564 1.6368,-1.8328 1.0657,-3.45399 -0.8706,-2.471127 -2.2219,-2.791272 -4.8976,-1.84865 -1.8573,0.65429 -2.7017,0.96946 -3.9008,1.53342 l 3.826,10.86036 1.9517,-0.68756 -1.5359,-4.35988 1.9572,-0.67183 c 0.6611,-0.23288 1.1331,-0.0984 1.603,0.53228 l 2.0523,3.06332 z m -8.2714,-3.79175 -1.2032,-3.41551 1.9517,-0.68756 c 1.3851,-0.48794 1.9478,-0.29693 2.4191,1.04094 0.4713,1.33787 0.1637,1.87088 -1.2159,2.37457 z" />
          <path
             inkscape:connector-curvature="0"
             id="path2153-73-3-6-6"
             style="font-style:normal;font-variant:normal;font-weight:600;font-stretch:normal;font-family:'Exo 2.0';-inkscape-font-specification:'Exo 2.0 Semi-Bold';fill:#5597a8;fill-opacity:1;stroke-width:0.41719475"
             d="m -1252.6384,103.72981 c 0.864,-0.14502 1.2969,-0.14291 1.7787,0.79155 0.5429,1.05311 0.2715,1.43711 -1.0634,2.12533 -0.712,0.36706 -1.3129,0.6581 -3.279,1.61535 l 0.5849,1.42578 c 1.6362,-0.46804 2.8678,-1.06543 3.4907,-1.3866 2.6254,-1.35351 3.3587,-2.40747 2.1582,-4.73619 -0.7724,-1.4981 -1.7589,-2.20987 -3.6433,-1.8955 l -2.2863,0.40891 c -0.9309,0.16078 -1.3791,0.129 -1.8456,-0.77579 -0.5659,-1.09761 -0.1443,-1.408829 1.1017,-2.051172 1.0086,-0.519992 2.2105,-1.102081 3.0712,-1.508292 l -0.5619,-1.381279 c -1.2429,0.284054 -2.4156,0.813538 -3.3945,1.318236 -2.4474,1.261744 -3.3089,2.212805 -2.1007,4.556357 0.7876,1.52776 1.8259,2.19411 3.5911,1.9036 z" />
          <path
             inkscape:connector-curvature="0"
             id="path2155-6-8-1-3"
             style="font-style:normal;font-variant:normal;font-weight:600;font-stretch:normal;font-family:'Exo 2.0';-inkscape-font-specification:'Exo 2.0 Semi-Bold';fill:#5597a8;fill-opacity:1;stroke-width:0.41719475"
             d="m -1240.789,99.606387 -3.7036,2.566033 c -0.4938,0.34214 -0.8284,0.26943 -1.2371,-0.32041 l -1.4636,-2.112434 3.882,-2.68958 -0.9124,-1.316845 -3.8819,2.689579 -1.15,-1.659773 c -0.4087,-0.589837 -0.3592,-0.928647 0.1346,-1.270785 l 3.7037,-2.56603 -0.8301,-1.373868 c -1.3243,0.75511 -2.8606,1.819538 -4.246,2.779423 -1.2346,0.855343 -1.5413,2.082918 -0.7852,3.20351 l 4.1057,5.925803 c 0.7835,1.10158 2.0268,1.25523 3.2751,0.39038 1.3854,-0.95989 2.9218,-2.02431 4.094,-2.9989 z" />
        </g>
      </g>
    </g>
  </g>
</svg>
